<svg xmlns="http://www.w3.org/2000/svg" width="561.12" height="154.109" viewBox="0 0 561.12 154.109">
  <g>
    <g>
      <path d="M76.784,154.109a14.054,14.054,0,0,1-5.439-1.1L26.894,134.373a13.977,13.977,0,0,1-7.583-7.651L1.056,82.116A13.981,13.981,0,0,1,1.1,71.345L19.736,26.9a13.988,13.988,0,0,1,7.65-7.585L71.992,1.057A13.984,13.984,0,0,1,82.764,1.1l44.45,18.636a13.975,13.975,0,0,1,7.584,7.649l18.254,44.606a13.977,13.977,0,0,1-.045,10.773l-18.635,44.449a13.979,13.979,0,0,1-7.648,7.584L82.117,153.052A14.073,14.073,0,0,1,76.784,154.109Zm.54-149.416a9.379,9.379,0,0,0-3.554.7h0L29.162,23.652a9.321,9.321,0,0,0-5.1,5.057L5.428,73.159A9.326,9.326,0,0,0,5.4,80.34l18.255,44.606a9.314,9.314,0,0,0,5.056,5.1l44.45,18.634a9.31,9.31,0,0,0,7.18.031l44.607-18.254a9.324,9.324,0,0,0,5.1-5.057L148.68,80.951a9.32,9.32,0,0,0,.031-7.182L130.456,29.162a9.316,9.316,0,0,0-5.056-5.1L80.95,5.428A9.352,9.352,0,0,0,77.324,4.693Z"/>
      <path d="M97.606,141.017H56.5a14.26,14.26,0,0,1-10.145-4.2L17.294,107.751a14.254,14.254,0,0,1-4.2-10.146V56.5a14.253,14.253,0,0,1,4.2-10.145L46.358,17.3a14.251,14.251,0,0,1,10.145-4.2h41.1a14.253,14.253,0,0,1,10.145,4.2l29.063,29.063a14.25,14.25,0,0,1,4.2,10.145v41.1a14.251,14.251,0,0,1-4.2,10.146L107.75,136.815A14.249,14.249,0,0,1,97.606,141.017ZM56.5,17.874a9.5,9.5,0,0,0-6.763,2.8L20.676,49.739a9.5,9.5,0,0,0-2.8,6.764v41.1a9.5,9.5,0,0,0,2.8,6.765L49.74,133.434a9.5,9.5,0,0,0,6.763,2.8h41.1a9.5,9.5,0,0,0,6.763-2.8l29.064-29.064a9.508,9.508,0,0,0,2.8-6.765V56.5a9.506,9.506,0,0,0-2.8-6.764L104.369,20.676a9.495,9.495,0,0,0-6.763-2.8Z"/>
      <path d="M115.068,121.16H39.041a6.1,6.1,0,0,1-6.093-6.092V39.041a6.1,6.1,0,0,1,6.093-6.092h76.027a6.1,6.1,0,0,1,6.092,6.092v76.027A6.1,6.1,0,0,1,115.068,121.16ZM39.041,37.892a1.149,1.149,0,0,0-1.148,1.149v76.027a1.15,1.15,0,0,0,1.148,1.149h76.027a1.15,1.15,0,0,0,1.149-1.149V39.041a1.15,1.15,0,0,0-1.149-1.149Z"/>
    </g>
    <g>
      <path d="M200.7,109.561a4.027,4.027,0,0,0,4.027,4.027h41.768v-9.569H211.086V80.78h35.407V71.894H211.086V49.474h35.407V39.905H200.7Z"/>
      <path d="M310.619,47.765a33.518,33.518,0,0,0-10.048-5.673,34.928,34.928,0,0,0-11.962-2.05h-24.88v69.519a4.027,4.027,0,0,0,4.027,4.027h20.853a36.986,36.986,0,0,0,12.167-1.982,32.793,32.793,0,0,0,10.048-5.468,26.015,26.015,0,0,0,6.835-8.407,23.288,23.288,0,0,0,2.529-10.8V66.836a22.106,22.106,0,0,0-2.6-10.595A28.277,28.277,0,0,0,310.619,47.765ZM309.8,86.931a14.5,14.5,0,0,1-1.646,6.835,16.554,16.554,0,0,1-4.528,5.4,22.492,22.492,0,0,1-6.725,3.554,25.508,25.508,0,0,1-8.234,1.3H274.119V49.611h14.546a23.619,23.619,0,0,1,7.959,1.367,22.833,22.833,0,0,1,6.724,3.691,19.088,19.088,0,0,1,4.667,5.468,13.38,13.38,0,0,1,1.783,6.7Z"/>
      <path d="M388.815,71.894h-26.96V80.78h20.6v19.275a37.452,37.452,0,0,1-7.957,3.622,34.721,34.721,0,0,1-10.7,1.435,20.909,20.909,0,0,1-7.752-1.435,19.494,19.494,0,0,1-6.312-3.964,19.093,19.093,0,0,1-4.252-5.947,17.082,17.082,0,0,1-1.576-7.245V66.7a14.554,14.554,0,0,1,1.776-6.9,20.172,20.172,0,0,1,4.717-5.879,24.955,24.955,0,0,1,6.7-4.1,20.47,20.47,0,0,1,7.895-1.573A29.9,29.9,0,0,1,375.754,50.3a19.973,19.973,0,0,1,8.475,5.877l6.7-6.561a31.51,31.51,0,0,0-11.551-8.134,37.23,37.23,0,0,0-13.852-2.8,32.893,32.893,0,0,0-12.473,2.255,33.31,33.31,0,0,0-10.038,6.079,30.032,30.032,0,0,0-6.9,8.955,23.412,23.412,0,0,0-2.6,10.731V86.521a26.632,26.632,0,0,0,2.324,11.141,28.182,28.182,0,0,0,15.925,14.9,33.18,33.18,0,0,0,11.962,2.119,43.635,43.635,0,0,0,16.337-2.734,59.381,59.381,0,0,0,11.051-5.894,4.013,4.013,0,0,0,1.731-3.326V75.921A4.027,4.027,0,0,0,388.815,71.894Z"/>
      <path d="M453.126,49.474V39.905H407.331v69.656a4.027,4.027,0,0,0,4.027,4.027h41.768v-9.569H417.719V80.78h35.407V71.894H417.719V49.474Z"/>
    </g>
    <g>
      <rect x="471.916" y="39.417" width="15.038" height="74.522"/>
      <path d="M561.12,112.745l-6.308-6.663c3.5-4.745,4.808-11.674,4.808-16.714V61.975C559.62,41.118,540.438,38,529,38s-30.617,3.114-30.617,23.971V91.382c0,10.348,4.842,22.883,27.91,23.831.952.039,1.962.059,3.011.059l.673,0,.5,0V101.9l20.535,20.814ZM529.6,101.391c-.2.007-.393.013-.6.013-11.255,0-16.056-3.487-16.056-11.659V63.612c0-8.171,4.8-11.658,16.056-11.658,11.1,0,16.057,3.6,16.057,11.658v24.12a15.787,15.787,0,0,1-1.349,6.625l-13.635-14.4V101.38Z"/>
    </g>
  </g>
</svg>
